<!-- Generator: Adobe Illustrator 23.1.0, SVG Export Plug-In  -->
<svg version="1.1" xmlns="http://www.w3.org/2000/svg" xmlns:xlink="http://www.w3.org/1999/xlink" x="0px" y="0px"
	 width="18px" height="18px" viewBox="0 0 219.09 281.29" style="enable-background:new 0 0 219.09 281.29;"
	 xml:space="preserve">
<style type="text/css">
	.st0{fill:#299CCE;}
	.st1{fill:none;}
</style>
<defs>
</defs>
<path class="st0" d="M203.11,61.22v-0.28c-0.47-0.84-1.03-1.61-1.69-2.3L145.41,2.81c-0.55-0.53-1.16-0.99-1.83-1.36l-0.56-0.33
	c-0.75-0.47-1.55-0.83-2.4-1.07C140.34,0.01,140.06,0,139.78,0c-0.28,0-0.56,0.01-0.84,0.05h-8.6v68.59h73.85v-2.97
	C204.21,64.12,203.84,62.58,203.11,61.22z M121.34,77.64V0.05H9.37C4.2,0.05,0,4.24,0,9.42v262.5c0,5.18,4.2,9.37,9.37,9.37h101.69
	c-8.51-3.78-16.4-9.03-23.29-15.59c-0.35-0.33-0.62-0.6-0.91-0.9c-0.7-0.7-1.39-1.43-2.09-2.18c0,0-0.41-0.41-0.6-0.61L84.15,262
	l-0.42-0.43c-0.42-0.44-0.85-0.89-1.26-1.37c-2.18-2.47-4.22-5.12-6.03-7.83c-9.3-13.58-14.22-29.54-14.16-46.1
	c0-0.69,0.04-1.37,0.13-2.04v-0.07l0.1-0.6c1.34-7.9,8.13-13.64,16.15-13.64c9.03,0,16.37,7.34,16.37,16.37
	c-0.06,9.99,2.87,19.61,8.49,27.85c1.04,1.54,2.17,3.01,3.38,4.41c8.41,9.87,20.06,15.88,32.9,17h0.58l0.18,0.01
	c0.56,0.03,1.12,0.04,1.68,0.04s1.12-0.01,1.68-0.04l0.18-0.01h0.18c13.91-0.01,27.03-5.83,36.35-16.05l1.48-1.81
	c15.02-18.18,15.02-44.57-0.01-62.75c-2.95-3.63-6.38-6.75-10.22-9.33c-8.23-5.59-17.8-8.53-27.71-8.53c-2.02,0-4.03,0.12-6.02,0.36
	c2.61,4.84,2.72,10.88-0.23,15.98c-2.97,5.02-8.37,8.09-14.13,8.09c-2.93,0-5.81-0.79-8.34-2.29L91.21,165.1
	c-7.82-4.65-10.38-14.72-5.78-22.47l14.56-24.48l0.2-0.27c3.07-4.21,8.03-6.73,13.25-6.73c2.33,0,4.6,0.49,6.73,1.45
	c5.42,2.46,8.85,7.52,9.51,13.03l0.72-0.14l0.89,0.07c0.26,0.02,0.52,0.02,0.8,0.02c1.69,0,3.8-0.24,5.83-0.48
	c2.24-0.26,4.34-0.5,6.32-0.5c23.65,0,45,10.09,59.95,26.19V77.64H121.34z M129.8,212.46h16.89v-23.09c0-4.24,3.44-7.69,7.69-7.69
	s7.7,3.45,7.7,7.69v30.78c0,4.25-3.45,7.69-7.7,7.69H129.8c-4.25,0-7.69-3.44-7.69-7.69S125.55,212.46,129.8,212.46z"/>
<path d="M177.53,281.29c6.15-2.73,11.95-6.23,17.28-10.44v10.44H177.53z"/>
<path d="M204.19,262.17v8.04h-8.58C198.64,267.76,201.51,265.08,204.19,262.17z"/>
<path d="M195.61,270.21c-0.26,0.22-0.53,0.43-0.8,0.64v-0.64H195.61z"/>
<path class="st0" d="M144.24,131.6c-3.3,0-8.16,0.98-12.15,0.98c-0.45,0-0.88-0.01-1.3-0.04c-3.84,0.71-7.62,1.71-11.31,3.02
	l2.49-4.17c2.13-4.72,0.03-10.27-4.68-12.41c-4.05-1.83-8.83-0.56-11.45,3.03L91.45,146.2c-2.64,4.45-1.17,10.2,3.28,12.85
	l24.29,14.15c4.45,2.64,10.2,1.17,12.84-3.28c2.59-4.48,1.07-10.22-3.41-12.81c-0.02-0.01-0.04-0.02-0.06-0.03l-5.06-3
	c17.35-6.92,37-4.78,52.45,5.72c4.41,2.96,8.36,6.56,11.72,10.68c17.19,20.8,17.19,50.88,0,71.67h0.09
	c-10.68,12.91-26.56,20.39-43.31,20.4c-1.36,0.07-2.72,0.07-4.08,0h-0.7c-14.7-1.2-28.32-8.18-37.88-19.41
	c-1.4-1.61-2.7-3.3-3.89-5.06c-6.38-9.37-9.77-20.45-9.7-31.79c0-5.17-4.2-9.37-9.37-9.37c-4.65,0-8.5,3.38-9.25,7.81
	c0,0.01,0,0.02,0,0.02c-0.09,0.5-0.13,1.02-0.13,1.54c-0.05,15.06,4.47,29.77,12.98,42.19c1.67,2.5,3.51,4.88,5.49,7.13
	c0.33,0.38,0.67,0.74,1.01,1.09c0.04,0.03,0.06,0.06,0.08,0.08c0.32,0.33,0.65,0.66,0.97,0.98c0.68,0.73,1.36,1.45,2.05,2.14
	c0.25,0.26,0.49,0.49,0.74,0.73c13.22,12.6,31.03,20.42,50.68,20.66h1.93c24.13-0.3,45.51-12.03,58.98-30.02v-0.02
	c0.22-0.29,0.43-0.57,0.64-0.86c0.16-0.2,0.3-0.41,0.45-0.62c0.35-0.48,0.69-0.98,1.03-1.48c8.07-11.94,12.78-26.34,12.78-41.84
	C219.09,165.11,185.58,131.6,144.24,131.6z"/>
<path class="st0" d="M172.07,281.29h22.74c5.18,0,9.38-4.19,9.38-9.37v-12.79C195.55,268.95,184.54,276.64,172.07,281.29z"/>
<path d="M69.39,206.45c0-0.57,0.01-1.14,0.02-1.7c-0.09,0.5-0.13,1.02-0.13,1.54c-0.05,15.06,4.47,29.77,12.98,42.19
	c1.67,2.5,3.51,4.88,5.49,7.13c0.33,0.38,0.67,0.74,1.01,1.09C76.73,243.42,69.39,225.79,69.39,206.45z M69.39,206.45
	c0-0.57,0.01-1.14,0.02-1.7c-0.09,0.5-0.13,1.02-0.13,1.54c-0.05,15.06,4.47,29.77,12.98,42.19c1.67,2.5,3.51,4.88,5.49,7.13
	c0.33,0.38,0.67,0.74,1.01,1.09C76.73,243.42,69.39,225.79,69.39,206.45z M69.39,206.45c0-0.57,0.01-1.14,0.02-1.7
	c-0.09,0.5-0.13,1.02-0.13,1.54c-0.05,15.06,4.47,29.77,12.98,42.19c1.67,2.5,3.51,4.88,5.49,7.13c0.33,0.38,0.67,0.74,1.01,1.09
	C76.73,243.42,69.39,225.79,69.39,206.45z"/>
<g>
	<line class="st1" x1="130.34" y1="0.05" x2="121.34" y2="0.05"/>
</g>
</svg>
