<?xml version="1.0" encoding="utf-8"?>
<!-- Generator: Adobe Illustrator 23.1.0, SVG Export Plug-In . SVG Version: 6.00 Build 0)  -->
<svg version="1.1" id="Capa_1" xmlns="http://www.w3.org/2000/svg" xmlns:xlink="http://www.w3.org/1999/xlink" x="0px" y="0px"
	 viewBox="0 0 512 512" style="enable-background:new 0 0 512 512;" xml:space="preserve" width="18px" height="18px">
<style type="text/css">
	.st0{fill:#299CCE;}
</style>
<g>
	<path class="st0" d="M301,46c0-24.8-20.2-46-45-46s-45,21.2-45,46s20.2,45,45,45S301,70.8,301,46z"/>
	<path class="st0" d="M331,166c0-41.4-33.6-75-75-75s-75,33.6-75,75v15h150V166z"/>
	<circle class="st0" cx="436" cy="226" r="45"/>
	<path class="st0" d="M436,271c-41.4,0-75,33.6-75,75v15h151v-15C512,304.6,477.4,271,436,271z"/>
	<circle class="st0" cx="76" cy="226" r="45"/>
	<path class="st0" d="M151,346c0-41.4-33.6-75-75-75S0,304.6,0,346v15h151V346z"/>
	<circle class="st0" cx="256" cy="376" r="45"/>
	<path class="st0" d="M331,496c0-41.4-33.6-75-75-75s-75,33.6-75,75v16h150V496z"/>
	<path class="st0" d="M91,136c0-24.8,20.2-45,45-45h15V61h-15c-41.4,0-75,33.6-75,75v15h30V136z"/>
	<path class="st0" d="M421,136v15h30v-15c0-41.4-33.6-75-75-75h-15v30h15C400.8,91,421,111.2,421,136z"/>
	<path class="st0" d="M61,391v15c0,41.4,33.6,75,75,75h15v-30h-15c-24.8,0-45-20.2-45-45v-15H61z"/>
	<path class="st0" d="M451,406v-15h-30v15c0,24.8-20.2,45-45,45h-15v30h15C417.4,481,451,447.4,451,406z"/>
</g>
</svg>
