<svg xmlns="http://www.w3.org/2000/svg" width="18px" height="18px" viewBox="0 0 81.218 71.59">
  <defs>
    <style>
      .cls-1 {
        fill: #299cce;
        fill-rule: evenodd;
      }
    </style>
  </defs>
  <path class="cls-1" d="M401.952,3927.56a4.218,4.218,0,0,0-8.4,0v1.28h8.4v-1.28Zm-39.961,8.41a1.235,1.235,0,0,1,.875,1.93,0.725,0.725,0,0,0,.26,1.05,0.936,0.936,0,0,0,.89,0,1.475,1.475,0,0,1,1.932.4,1.122,1.122,0,0,1,.182.4,0.837,0.837,0,0,0,1,.57,0.8,0.8,0,0,0,.63-0.57,1.414,1.414,0,0,1,1.674-.97,1.373,1.373,0,0,1,.439.17,0.882,0.882,0,0,0,1.15-.24,0.7,0.7,0,0,0,0-.81,1.221,1.221,0,0,1,.436-1.77,1.634,1.634,0,0,1,.439-0.16,0.761,0.761,0,0,0,.629-0.91,0.807,0.807,0,0,0-.629-0.58,1.274,1.274,0,0,1-1.057-1.52,1.122,1.122,0,0,1,.182-0.4,0.722,0.722,0,0,0-.26-1.05,0.885,0.885,0,0,0-.89,0,1.5,1.5,0,0,1-1.932-.4,1.3,1.3,0,0,1-.181-0.4,0.844,0.844,0,0,0-1-.58,0.808,0.808,0,0,0-.629.58,1.4,1.4,0,0,1-1.675.96,1.634,1.634,0,0,1-.439-0.16,0.88,0.88,0,0,0-1.15.23,0.719,0.719,0,0,0,0,.82,1.212,1.212,0,0,1-.436,1.76,1.354,1.354,0,0,1-.439.16,0.765,0.765,0,0,0-.629.91,0.808,0.808,0,0,0,.629.58h0Zm-18.854-8.41v60.08h37.81a1.341,1.341,0,0,1,1.4,1.27v2.56a4.218,4.218,0,0,0,8.4,0v-63.91a6.01,6.01,0,0,1,1.4-3.84H347.338A4.036,4.036,0,0,0,343.137,3927.56Zm7,52.41h-2.8v-2.56h2.8v2.56Zm0-10.23h-2.8v-2.56h2.8v2.56Zm36.409,10.23h-8.4v-2.56h8.4v2.56Zm0-5.12H364.142v-2.55h22.406v2.55Zm0-10.22h-8.4v-2.56h8.4v2.56Zm-22.406-16.62v-2.56h14v2.56h-14Zm9.8,2.56v2.55h-14v-2.55h14Zm-13.99-17.99a3.643,3.643,0,0,1,4.093-3.73,3.919,3.919,0,0,1,5.151-.59,3.476,3.476,0,0,1,.638.59,3.61,3.61,0,0,1,4.094,2.91,3.043,3.043,0,0,1,0,.82,3.168,3.168,0,0,1,.639,4.71,3.817,3.817,0,0,1-.639.58,3.434,3.434,0,0,1-3.19,3.74,4.551,4.551,0,0,1-.9,0,3.916,3.916,0,0,1-5.15.58,3.856,3.856,0,0,1-.639-0.58,3.624,3.624,0,0,1-4.093-2.92,3.043,3.043,0,0,1,0-.82,3.157,3.157,0,0,1-.639-4.7,3.482,3.482,0,0,1,.639-0.59h0Zm-4.215,12.87h5.6v2.56h-5.6v-2.56Zm-2.8,11.51h33.609v2.55H352.939v-2.55Zm0,5.11h22.406v2.56H352.939v-2.56Zm0,5.11h33.609v2.56H352.939v-2.56Zm0,5.12h8.4v2.55h-8.4v-2.55Zm0,5.11h22.406v2.56H352.939v-2.56Zm0,5.11h33.609v2.56H352.939v-2.56Zm-2.8-23.01h-2.8v-2.55h2.8v2.55Zm29.407,30.68H331.934v1.28a4.042,4.042,0,0,0,4.2,3.84H380.95a6.031,6.031,0,0,1-1.4-3.84v-1.28Zm22.406-51.13a2.693,2.693,0,0,0-2.8,2.56h5.6A2.692,2.692,0,0,0,401.952,3939.06Zm-2.8,5.11h5.6v10.23h-5.6v-10.23Zm2.8,43.16,1.935-3.53h-3.871Zm-2.8-30.37h5.6v2.55h-5.6v-2.55Zm0,5.11h5.6v19.17h-5.6v-19.17Zm9.8-20.45h-1.4v2.55h1.4a1.357,1.357,0,0,1,1.4,1.28v14.06h2.8v-14.06A4.035,4.035,0,0,0,408.953,3941.62Z" transform="translate(-331.938 -3923.72)"/>
</svg>
