<svg xmlns="http://www.w3.org/2000/svg" width="13" height="16" viewBox="0 0 13 16">
  <defs>
    <style>
      .cls-1 {
        fill: #299cce;
        fill-rule: evenodd;
      }
    </style>
  </defs>
  <path class="cls-1" d="M1393.75,274H1391v-0.5a1.5,1.5,0,0,0-1.5-1.5h-2a1.5,1.5,0,0,0-1.5,1.5V274h-2.75a1.251,1.251,0,0,0-1.25,1.25V277a0.5,0.5,0,0,0,.5.5h0.27l0.44,9.071A1.487,1.487,0,0,0,1384.7,288h7.6a1.487,1.487,0,0,0,1.49-1.429l0.44-9.071h0.27a0.5,0.5,0,0,0,.5-0.5v-1.75a1.251,1.251,0,0,0-1.25-1.25h0Zm-6.75-.5a0.5,0.5,0,0,1,.5-0.5h2a0.5,0.5,0,0,1,.5.5V274h-3v-0.5Zm-4,1.75a0.249,0.249,0,0,1,.25-0.25h10.5a0.249,0.249,0,0,1,.25.25v1.25h-11v-1.25Zm9.8,11.274a0.51,0.51,0,0,1-.5.476h-7.6a0.51,0.51,0,0,1-.5-0.476l-0.43-9.024h9.46Zm-4.3-.524a0.5,0.5,0,0,0,.5-0.5V279a0.5,0.5,0,0,0-1,0v6.5A0.5,0.5,0,0,0,1388.5,286Zm2.5,0a0.5,0.5,0,0,0,.5-0.5V279a0.5,0.5,0,0,0-1,0v6.5A0.5,0.5,0,0,0,1391,286Zm-5,0a0.5,0.5,0,0,0,.5-0.5V279a0.5,0.5,0,0,0-1,0v6.5A0.5,0.5,0,0,0,1386,286Z" transform="translate(-1382 -272)"/>
</svg>
