<svg xmlns="http://www.w3.org/2000/svg" width="18" height="18" viewBox="0 0 100.5 89.46">
  <defs>
    <style>
      .cls-1 {
        fill: #299cce;
        fill-rule: evenodd;
      }
    </style>
  </defs>
  <path class="cls-1" d="M1948.78,2788.47a34.548,34.548,0,0,0-30.85-18.35c-19.05,0-34.55,14.69-34.55,32.76a31.182,31.182,0,0,0,3.29,14l-3.23,15.4a2.882,2.882,0,0,0,3.46,3.31l16.34-3.08a35.454,35.454,0,0,0,6.82,2.27C1904.82,2811.09,1923.64,2788.85,1948.78,2788.47Zm31.81,52.38a33.692,33.692,0,0,0,1.47-3.47h-0.1c7.35-20.58-8.11-42.21-30.93-43.26h0c-19.64-.87-35.95,14.13-35.95,32.72,0,18.05,15.38,32.74,34.3,32.77a35.366,35.366,0,0,0,14.64-3.14c17.9,3.38,16.5,3.14,16.91,3.14a2.855,2.855,0,0,0,2.89-3.36Z" transform="translate(-1883.38 -2770.13)"/>
</svg>
