<?xml version="1.0" encoding="utf-8"?>
<!-- Generator: Adobe Illustrator 23.1.0, SVG Export Plug-In . SVG Version: 6.00 Build 0)  -->
<svg version="1.1" id="Capa_1" xmlns="http://www.w3.org/2000/svg" xmlns:xlink="http://www.w3.org/1999/xlink" x="0px" y="0px"
	 viewBox="0 0 512 512" style="enable-background:new 0 0 512 512;" xml:space="preserve" width="18" height="18">
<style type="text/css">
	.st0{fill:#299CCE;}
</style>
<g>
	<circle class="st0" cx="256" cy="140.17" r="73.9"/>
	<circle class="st0" cx="405.49" cy="167.35" r="46.72"/>
	<circle class="st0" cx="106.51" cy="167.35" r="46.72"/>
	<path class="st0" d="M152.54,256.02c-18.39-15.07-35.04-13.07-56.3-13.07c-31.8,0-57.67,25.72-57.67,57.32v92.76
		c0,13.73,11.2,24.89,24.98,24.89c59.48,0,52.31,1.08,52.31-2.57C115.85,349.62,108.07,301.42,152.54,256.02z"/>
	<path class="st0" d="M276.22,243.28c-37.14-3.1-69.42,0.04-97.26,23.02c-46.59,37.32-37.63,87.57-37.63,149.05
		c0,16.26,13.23,29.74,29.74,29.74c179.29,0,186.42,5.78,197.05-17.76c3.49-7.96,2.53-5.43,2.53-81.6
		C370.66,285.24,318.28,243.28,276.22,243.28L276.22,243.28z"/>
	<path class="st0" d="M415.77,242.95c-21.38,0-37.94-1.97-56.3,13.07c44.14,45.06,36.68,89.98,36.68,159.33
		c0,3.66-5.95,2.57,51.42,2.57c14.27,0,25.87-11.56,25.87-25.77v-91.88C473.44,268.66,447.57,242.95,415.77,242.95z"/>
</g>
</svg>
