<svg width="18px" height="18px" xmlns="http://www.w3.org/2000/svg" xmlns:xlink="http://www.w3.org/1999/xlink" version="1.1" x="0px" y="0px" viewBox="0 0 100 100" style="enable-background:new 0 0 100 100;" xml:space="preserve" fill="#299CCE">
   <g>
      <g>
         <path d="M50,4C24.6,4,4,24.6,4,50s20.6,46,46,46s46-20.6,46-46S75.4,4,50,4z M86.8,53.1H74.5v-6.1h12.3V53.1z M13.2,46.9h12.3v6.1    H13.2V46.9z M46.9,25.5V13.2h6.1v12.3H46.9z M53.1,28.5v24.5H31.6v-6.1h15.3V28.5H53.1z M46.9,74.5h6.1v12.3h-6.1V74.5z"></path>
      </g>
   </g>
</svg>